Text_Lab
…
total_words <- word_count %>% 
  group_by(Sources) %>% 
  summarize(total = sum(n))

Article_words <- left_join(word_count, total_words)

Article_words <- Article_words %>%
  bind_tf_idf(word, Sources, n)

Article_words

## # A tibble: 12,524 x 7
##    Sources word             n total      tf   idf  tf_idf
##    <chr>   <chr>        <int> <int>   <dbl> <dbl>   <dbl>
##  1 Eurasia data           402 34747 0.0116  0     0      
##  2 Eurasia ai             263 34747 0.00757 0.405 0.00307
##  3 Eurasia study          141 34747 0.00406 0.405 0.00165
##  4 Eurasia intelligence   138 34747 0.00397 0.405 0.00161
##  5 Eurasia science        134 34747 0.00386 0     0      
##  6 Eurasia future         121 34747 0.00348 0.405 0.00141
##  7 Eurasia researchers    121 34747 0.00348 0.405 0.00141
##  8 Eurasia research       113 34747 0.00325 0     0      
##  9 Eurasia 2018           108 34747 0.00311 0     0      
## 10 Eurasia strategic      100 34747 0.00288 1.10  0.00316
## #  with 12,514 more rows
…
total_words <- word_count %>% 
  group_by(midwest_newspapers) %>% 
  summarize(total = sum(n))

inag_words <- left_join(word_count, total_words)

inag_words <- inag_words %>%
  bind_tf_idf(word, midwest_newspapers, n)
inag_words

## # A tibble: 22,753 x 7
##    midwest_newspapers              word          n total      tf   idf tf_idf
##    <chr>                           <chr>     <int> <int>   <dbl> <dbl>  <dbl>
##  1 Chicago Daily Herald (CDH)      science     826 53322 0.0155      0      0
##  2 Chicago Daily Herald (CDH)      school      502 53322 0.00941     0      0
##  3 St. Louis Post-Dispatch (SLP-D) favorite    480 63203 0.00759     0      0
##  4 St. Louis Post-Dispatch (SLP-D) louis       479 63203 0.00758     0      0
##  5 Chicago Daily Herald (CDH)      students    471 53322 0.00883     0      0
##  6 Chicago Daily Herald (CDH)      data        467 53322 0.00876     0      0
##  7 St. Louis Post-Dispatch (SLP-D) st          456 63203 0.00721     0      0
##  8 Chicago Daily Herald (CDH)      bachelor    428 53322 0.00803     0      0
##  9 St. Louis Post-Dispatch (SLP-D) academic    398 63203 0.00630     0      0
## 10 Chicago Daily Herald (CDH)      education   366 53322 0.00686     0      0
## #  with 22,743 more rows
…
total_words<-word_count %>% 
  group_by(sources) %>% 
  summarize(total = sum(n))

news_words<-left_join(word_count, total_words)

news_words<-news_words %>%
  bind_tf_idf(word, sources, n)

news_words

## # A tibble: 16,960 x 7
##    sources word          n total      tf   idf  tf_idf
##    <chr>   <chr>     <int> <int>   <dbl> <dbl>   <dbl>
##  1 NYT     data       1661 50026 0.0332  0     0      
##  2 NYT     science    1156 50026 0.0231  0     0      
##  3 NYT     2021        418 50026 0.00836 0     0      
##  4 NYT     business    326 50026 0.00652 0     0      
##  5 NYT     march       196 50026 0.00392 0     0      
##  6 NYT     analytics   183 50026 0.00366 0     0      
##  7 NYT     ai          180 50026 0.00360 0.405 0.00146
##  8 NYT     students    173 50026 0.00346 0.405 0.00140
##  9 NYT     price       169 50026 0.00338 0.405 0.00137
## 10 NYT     learning    164 50026 0.00328 0     0      
## #  with 16,950 more rows
…
total_words<-word_count %>% 
  group_by(sources) %>% 
  summarize(total = sum(n))

news_words<-left_join(word_count, total_words)

news_words<-news_words %>%
  bind_tf_idf(word, sources, n)

news_words

## # A tibble: 41,767 x 7
##    sources    word         n  total      tf   idf  tf_idf
##    <chr>      <chr>    <int>  <int>   <dbl> <dbl>   <dbl>
##  1 East Coast data      1900  73553 0.0258  0     0      
##  2 East Coast science   1273  73553 0.0173  0     0      
##  3 Midwest    science   1188 116524 0.0102  0     0      
##  4 Midwest    school     763 116524 0.00655 0     0      
##  5 Midwest    data       730 116524 0.00626 0     0      
##  6 Midwest    students   646 116524 0.00554 0     0      
##  7 Midwest    college    613 116524 0.00526 0     0      
##  8 Midwest    favorite   482 116524 0.00414 0.405 0.00168
##  9 Midwest    louis      480 116524 0.00412 0.405 0.00167
## 10 Midwest    st         467 116524 0.00401 0     0      
## #  with 41,757 more rows
